<!-- Generated by IcoMoon.io -->
<svg version="1.1" xmlns="http://www.w3.org/2000/svg" width="1024" height="1024" viewBox="0 0 1024 1024">
<title></title>
<g id="icomoon-ignore">
</g>
<path d="M16 458l246-247q26-19 45-19 26 0 43.5 18t17.5 43-19 45l-144 144h761q24 0 41 16.5t17 40.5v35q0 16-7.5 29.5t-21 21-29.5 7.5h-761l147 144q19 14 19 45 0 8-2 16.5t-6.5 15-10 12-12 9-14.5 6-16 2.5-15.5-2.5-15-6.5-13.5-11l-250-246q-16-16-16-42 0-12 3-16-3-6-3-16 0-11 4.5-22.5t11.5-21.5z"></path>
</svg>
