<!-- Generated by IcoMoon.io -->
<svg version="1.1" xmlns="http://www.w3.org/2000/svg" width="1024" height="1024" viewBox="0 0 1024 1024">
<title></title>
<g id="icomoon-ignore">
</g>
<path d="M0 877v-102h1025v102h-1025zM0 467h1025v103h-1025v-103zM0 160h1025v102h-1025v-102z"></path>
</svg>
