<!-- Generated by IcoMoon.io -->
<svg version="1.1" xmlns="http://www.w3.org/2000/svg" width="864" height="1024" viewBox="0 0 864 1024">
<title></title>
<g id="icomoon-ignore">
</g>
<path d="M672 256v-43q0-55.5-35.5-106-35-49.5-91-78.5-55.5-28.5-113.5-28.5-59 0-119 28.5t-101 78.5-41 106v43h-171v640q0 53 37.5 90.5t90.5 37.5h608q53 0 90.5-37.5t37.5-90.5v-640h-192zM256 213q0-32.5 29.5-63.5 28.5-29.5 70-47.5 40-17 76.5-17 54.5 0 105 38.5 50 38 50 89.5v43h-331v-43zM779 896q0 18-12.5 30.5t-30.5 12.5h-608q-9.5 0-16.5-3.5-8-4-13.5-9.5t-9.5-13.5q-3.5-7-3.5-16.5v-555h694v555z"></path>
</svg>
