<!-- Generated by IcoMoon.io -->
<svg version="1.1" xmlns="http://www.w3.org/2000/svg" width="993" height="1024" viewBox="0 0 993 1024">
<title></title>
<g id="icomoon-ignore">
</g>
<path d="M55.5 487h879.5q6.5 0 8.75 2t2.25 8.5v491.5q0 14.5-10.25 24.75t-24.75 10.25h-224q-1 0-3.5-0.25t-4-0.25q0-1.5-0.25-4t-0.25-4q0-201.5-0.5-241.5 0-1 0.25-2.5t0.25-2q0-49-25.5-90t-67.5-63l-1-0.5q-38.5-22.5-84-22.5-38 0-70 15l1-0.5q-43.5 17.5-72.5 54.25t-35 82.75v1q-2.5 16-2.5 32v236q0 1.5-0.25 4.75t-0.25 5.25h-231q-14.5 0-24.75-10.25t-10.25-24.75v-3q0-46.5 0.25-139.25t0.25-139.25q0-55-0.25-104.5t-0.25-104.5v-11.5zM530 371q-1-35.5-2.25-106.75t-1.75-106.75q-0.5-17.5 4.5-24.75t21-13.25q26-9.5 55.5-9.5 22 0 43 5.5l-1.5-0.5q15 4 31 11.5h-1q14 6.5 15.5 20.5v0.5q6 40 17.75 120.5t17.75 120.5q0.5 2 0.5 7 0 11-6.25 20.5t-16.25 13.5q-30.5 16.5-66.5 16.5-1 0-3-0.25t-2.5-0.25h-4q-36 0-67-13.5h1q-39-17.5-35-52.5v-0.5q0-1-0.25-2t-0.25-2v-4zM908.5 445.5q-0.5 0-1.75 0.25t-2.25 0.25q-40 0-78-17l1.5 0.5q-15.5-6-26.25-18.75t-12.75-29.25v-0.5l-27-147-16.5-87v-3q0-13.5 10.5-19h0.5q18-12.5 38.5-13h0.5q15-2 25-2 33.5 0 64 11.5l-1-0.5q23.5 6.5 31 30.5v0.5q3 10.5 6.75 22.25t8.5 26 7.25 22.25q9 28 26.5 83.5t26.5 83q3 7 3 12.5 0 21-20 29h-0.5q-29.5 15.5-62.5 15.5h-1l-1-0.5h0.5zM84 438h4q43 0 78-16.5l-1.5 0.5q15.5-6 26.25-19t12.75-29.5q0.5-4.5 27-147.5 2.5-14.5 8-43.25t8.5-43.25v-3q0-12.5-10.5-19h-0.5q-19-13-38.5-13.5h-0.5q-11.5-1.5-25-1.5-33.5 0-64 11.5l1-0.5q-23.5 6.5-31 30.5-3 10.5-6.75 22.25t-8.5 26-7.25 22.25l-53 167q-2.5 6-2.5 12.5 0 21.5 19.5 29h0.5q28.5 15 62.5 15h1.5zM465.5 367.5q0.5-35.5 2-107t2-107q0.5-17.5-4.25-24.75t-20.75-13.25q-25-9-56-9-23 0-42.5 5h1q-15 4-31 11.5l1-0.5q-13.5 6.5-15 21-6 40-17.75 120.5t-17.75 121q-1 4-1 7 0 11 6.25 20.25t16.25 13.25l0.5 0.5q29.5 16 66.5 16h9q35 0 67-14l-1 0.5q39.5-18 35.5-52.5v-8.5zM510 889q-19 5.5-39.5 5.5-24.5 0-44.5-6.5h1q29.5 20 64 22h0.5q14-7.5 18.5-20.5v-0.5zM407 820.5q0-5-4-6.5-7.5-2.5-9.75-7.5t0.25-15.5q1 2.5 6.25 6.75t7.25 7.75v-82.5q0-35 25.5-61.5-30 18.5-47.75 48.75t-17.75 66.25q0 49.5 32 87l-0.5-0.5q8.5-18 8.5-38.5v-4zM519.5 886q-4 15-13.5 24.5 27-8.5 37-35.5l0.5-0.5q-11.5 7.5-23 11.5h-1zM442.5 777.5q0-5-4-6.5-7.5-2.5-9.75-7.5t0.25-15.5q1 2.5 6.25 6.75t7.25 7.75v-14.5q0-6-4-7-14-4-9.5-22.5 1 2.5 6.25 6.5t7.25 7.5v-27q0-37.5 30.5-60-25.5 8-41.5 29.5t-16 48.5v82q2-3.5 7.25-7.75t6.25-6.75q2.5 10.5 0.25 15.5t-9.75 7.5q-4 1.5-4 6.5v2.5q0 19-6 36.5l0.5-1q33-24.5 33-65.5 0-1-0.25-2.75t-0.25-2.75v-10zM451 777.5q0-5 4.5-6.5 13.5-4 9-23-1 2.5-6.25 6.75t-7.25 7.75v-14.5q0-6 4.5-7 7.5-2.5 9.5-7.25t-0.5-15.25q-1 2.5-6.25 6.5t-7.25 7.5v-20q0-59 51-70-22 19-23 49-2-3.5-7.25-7.75t-6.25-6.75q-4.5 19 9 23 4.5 1.5 4.5 6.5v66.5q0 72.5-57.5 86.5 29.5-27 29.5-67v-15zM514.5 843.5v-73.5q0-6-4.5-7-7.5-2.5-9.5-7.25t0.5-15.25q1 2.5 6.25 6.5t7.25 7.5v-4q0-29 15.75-52.5t41.75-34l0.5-0.5q-24.5-16-56.5-20h-0.5q-28 15.5-28 48 2-3.5 7.25-7.75t6.25-6.75q4 19-9.5 23-4.5 1.5-4.5 6.5v66.5q0 45.5-21.75 69.5t-59.75 28.5q30 15 65 15 23.5 0 43-6.5l-1 0.5q2-11 2-19v-2.5q0-5.5-4.5-6.5-13.5-4-9-23 1 2.5 6.25 6.75t7.25 7.75zM550.5 816q0-6-4.5-7-7.5-2.5-9.5-7.25t0.5-15.25q1 2.5 6.25 6.5t7.25 7.5v-65.5q0-0.5-0.25-2.25t-0.25-2.75q0-28.5 14.5-53.5v0.5q-19 12-30.5 31.5t-11.5 42.5v3.5q2-3.5 7.25-7.5t6.25-6.5q2.5 10.5 0.5 15.25t-9.5 7.25q-4.5 1.5-4.5 7v73.5q2-3.5 7.25-7.75t6.25-6.75q4.5 19-9 23-4.5 1-4.5 6.5v2q0 11-1 16.5v-0.5q14.5-6 26-15h-0.5q3.5-16 3.5-29v-16.5zM586 763q0-5.5-4-6.5-7.5-2.5-9.75-7.5t0.25-15.5q1 2.5 6.25 6.75t7.25 7.75v-15q0-5-4-6.5-14-4-9.5-22.5 1 2.5 6.25 6.5t7.25 7.5v-14q0-13 5-27v0.5q-0.5-0.5-4-3.5t-5.5-4.5q-23 19.5-23 65.5v65.5q2-3.5 7.25-7.5t6.25-6.5q2.5 10.5 0.5 15.25t-9.5 7.25q-4.5 1.5-4.5 6.5v16q0 11-1.5 21.5l0.5-1q29-32 29-76 0-1-0.25-2t-0.25-2v-9zM594.5 763q0-5.5 4.5-6.5 13.5-4 9-23-1 2.5-6.25 6.75t-7.25 7.75v-15q0-5 4.5-6.5 7.5-2.5 9.5-7.25t-0.5-15.25q-1 2.5-6.25 6.5t-7.25 7.5v-13.5q0-11.5 3-21v0.5q37 38.5 37 92.5 0 47.5-29.5 84t-75 46.5l-1 0.5q20-15.5 25.5-41v-0.5q40-35 40-88.5v-14.5z"></path>
</svg>
