<!-- Generated by IcoMoon.io -->
<svg version="1.1" xmlns="http://www.w3.org/2000/svg" width="1024" height="1024" viewBox="0 0 1024 1024">
<title></title>
<g id="icomoon-ignore">
</g>
<path d="M498 588l-408 408-90-91 407-407-407-408 90-90 408 407 407-407 91 90-408 408 408 407-91 91z"></path>
</svg>
