<!-- Generated by IcoMoon.io -->
<svg version="1.1" xmlns="http://www.w3.org/2000/svg" width="1024" height="1024" viewBox="0 0 1024 1024">
<title></title>
<g id="icomoon-ignore">
</g>
<path d="M45 614h34q-9 56 7.5 110 16.5 53.5 44.5 91.5 28 37.5 68.5 71.5t70.5 52.5q28 17.5 60 33.5v46h257v-46q33-16.5 59.5-33.5 29.5-18.5 70.5-52.5 41-33.5 69-71.5t44.5-91.5q16.5-54 7.5-110h34v-83h-827v83zM149 647q0-5.5 2-13l1-5 4-16 0.5 1.5 1.5 5.5 2 9q0 1 1 6 0 2.5 0.5 3t0.5 2.5 0.5 3q1 2 1.5 3.5l7 21q0.5 2 5 12t5 12q3.5 7.5 7 13.5 2 3 4.25 7.5t2.75 5q2.5 6 8 13.5 6 8.5 9 13.5 0.5 0.5 1.5 2t2.25 3 2.25 3 3.5 4.75 3.5 4.75q3 4.5 7 8.5 16.5 20.5 21 25l1 1q1.5 1.5 3.5 4t4.5 5q9 10 12 14 7 5.5 41 41l41 41q-24-6-54-23-11-6-26-15.5-11-7-25-18.5-10.5-8.5-24.5-22.5-12.5-12.5-24.5-27.5-1-1-21-30-6-9.5-9-16-6-13-7-16-1-2-3-7.5-2-5-3-8.5-0.5-2-2.5-7-2-4.5-2.5-8-1-6.5-2.25-13.25t-2-10.75-0.75-6v-25zM940-1q11 13 16.5 21 4.5 6.5 14.5 19.5 6 7.5 19 24.5-20 14-54.5 36-42.5 27.5-65.5 41.5-32.5 20.5-54 32.5-7 4.5-16 10.25t-11 7.25q-8 5.5-15 19.5-7 15-5 34 5 61.5-34 119-38.5 56.5-102 86-62.5 29-123 16-53.5-11-80-54-26-42-13-97 15.5-61.5 62.5-106 45.5-43.5 106-58 59.5-14 124.5 3 13.5 4 30.5-0.5 18-4.5 30.5-13.5 14.5-11 42-38.5 29.5-29.5 37-35.5 2.5-2 90-67z"></path>
</svg>
