<!-- Generated by IcoMoon.io -->
<svg version="1.1" xmlns="http://www.w3.org/2000/svg" width="1024" height="1024" viewBox="0 0 1024 1024">
<title></title>
<g id="icomoon-ignore">
</g>
<path d="M547 941q-7 5-8 4t-1-11q0-243.5-7-393 0-14 13-23 115-64 339-192 3-1.5 9.5-3.5 2.5-0.5 3 1.5 0.5 1.5 0.5 9v304q12.5 6 23 14 8 6 22 18 7.5 6.5 19 19v-400q0-26.5-19-38-86.5-51-224-134-113-68-183-110-19-9-38 0-303.5 173.5-406 231-23 12.5-23 38v141q-1 48-1 82.5 0 61.5-0.5 91.5-1 46-1.5 79v73q0 23 19 32 278 166.5 403 244 19 11 42 0 6-4.5 61-36-20-25.5-29-48zM163 259q112-61 336-189 15-9 29 0 19.5 12.5 47.5 28.5 41 23.5 57 33.5 23 14 26.5 15-16 11-36 22.5-5 3-16.5 9.5t-16.5 9q-4.5 2.5-16.75 9.25t-19.25 10.75q-24.5 13.5-77 44-78.5 45.5-86.5 50-15 8.5-40.5 23.25t-36 20.75q-17 8-29 0-19-13-66-41-49-29-56-33-1.5-0.5-3-1.5t-2.5-1.75-1.5-0.75q-2-0.5-2-2.5t2-2.5q0.5 0 1.5-0.75t2.5-1.75 3-1.5zM480 739v80l-0.5 42-1 38.5-1.5 41.5q0 10-2 10-1 0-8-4-67-42.5-187-114.5-130-78-155-93.5-10-5.5-10-16 2-53 3.5-193.5t3.5-193.5v-11l0.5-6 3.5-1.5 5.5 3 9.5 5.5q14 9 40.5 24.5 25 14.5 41 24.5t41 24.5q26.5 15.5 40.5 24.5t40.5 24.5q25 14.5 41 24.5t41 24.5q26.5 15.5 40.5 24.5 6.5 3.5 10 9.5 3 5 3 12.5v195zM522 467q-15 9.5-29 0-22-11.5-42.5-24l-47-28-41.5-25q-6.5-3-7-4.5-1-1.5 0-3 0.5-1.5 7-4.5 115-64 339-192 3-2.5 6.5-3.5 2.5-1 7 0 5 1 8.5 3.5 12.5 7.5 69 41 46 27 69 42 0 3-3 6-21 11.5-85 48t-85 48l-83 48q-52.5 30-83 48zM765 643h6q5 0 16 1 1 0 12.5 2 3 0.5 13.5 4 44.5 9 79.5 40 34 30.5 51.5 75 0 1 1 2.5t1 2l2 5 2 4.5 4.5 15 1 4.5 1.5 4.5 3 16v35q0 10-3 16-6 27-13 39-12 26.5-29 47-19 23-42 38-24 16-51 24l-4 1q-4.5 1-8 1.5-8.5 1.5-13 3.5h-48q-13 0-19-3-2.5 0-5.5-1-1.5-0.5-5.5-1.5-2-0.5-5-0.5-2-1-6-2.5-3-1-5.5-1.5-1.5-0.5-3.5-1l-2-1q-1 0-2.5-1t-2-1-2-1-2.5-1q-68-31-96-93-4-7.5-10-25 0-1.5-1-6.25t-1.5-8.25q-1.5-10-3.5-14.5v-55q6-24.5 10-35 0-1 0.75-3t1.25-3.5q0-1 0.5-2.25t1-2.25 0.5-1.5q0.5-1 1.25-3t1.25-3q2.5-6 2.5-6.5l13-10q1.5-2 6.5-9.5t6.5-9.5l29-29q4-3 7.5-6.5t8.5-6.5l19-9q14-6 22-10l39-10h16zM768 691h-16q-3 0-4.5 0.5l-5 1-4.5 1-5 1-5 1.5-5 2-19 9q-2 2-6.5 5t-6.5 5q-20 15-35 35-7 13-10 16-6 14-6 16-6 20-6 26v41q0 7 6 26 0 1.5 0.75 4t1.25 3.5q1 3.5 3 7.5l3.5 7 4.5 7 9 12q2.5 2.5 5 7 2.5 3.5 5 6l16 16 29 19 29 10q3 0 7.5 1.5t8.5 1.5h32q6 0 25-6 62.5-21 87-80 7-12 12-32 0-9.5 4-16v-26q0-9-4-13 0-1-0.75-3t-1.25-3.5q0-1-0.5-2.25t-1-2.25-0.5-1.5q-0.5-1-1.25-3t-1.25-3q-2.5-6-2.5-6.5-26-57-80-77-13-6-23-6-5.5-2.5-12.5-3.5-4.5-0.5-15.5-0.5zM768 714q2 0 2.5 1.5 0.5 1 0.5 4.5l3 16q0.5 2.5 1.5 9.5t2.5 14.75 3 15.75q5 27 6 40 4.5 1 17.75 3t22.25 3.5 22.25 3.5 17.75 3l13 3h6v6q-5.5 0.5-9 4l-23 3q-10 1-24 3-14.5 2.5-23 3t-26 3h-19q-13 0-20-12 0-1-1-5-2-3.5-2-5v-22q3-10 3-16l10-55q0-3 1.5-10t1.5-12q5 1 6 1h2.5l2.5-2z"></path>
</svg>
