<!-- Generated by IcoMoon.io -->
<svg version="1.1" xmlns="http://www.w3.org/2000/svg" width="1024" height="1024" viewBox="0 0 1024 1024">
<title></title>
<g id="icomoon-ignore">
</g>
<path d="M1014 716q2 2 4 5t3.5 6.5 2.5 7 1 7.5v1q0 8-3 15-1 3-3 5.5t-4 4.5q-6 4-10 7-7 4-14 4l-14 1h-52q0 3-0.5 6t-1.5 6l-0.5 2t-0.5 3.5v2.5q-3 10-6 18-15 42-48 70.5t-76 36.5q-7 2-14 2.5t-14 0.5h-2l-2 1h-2q-16 0-31-3.5t-30-9.5q-41-17-68.5-53.5t-31.5-82.5h-202q-5 55-43 96t-93 50h-4q-11 2-23 3h-6q-23 0-45-7.5t-41-20.5q-65-44-72-121h-2q-27 0-46.5-19.5t-19.5-46.5v-540q0-27 19.5-46t46.5-19h568q17 0 32.5 8.5t24 23.5 8.5 33v76l1 7h78q9 1 18 3t17 5l16 8t7.5 5 6.5 6l117 115q4 4 7.5 8t5.5 9q3 4 5 8.5t3 9.5q2 5 3 10.5t2 11.5q1 14 1 20v229q5 0 10 1.5t9 4 8 5.5zM231 666q-40 0-69 29t-29 69q0 16 5 31t14.5 27.5 21.5 21.5 27 14 31 5q41 0 70-29t29-70q-1-20-8.5-38t-21-31.5-31.5-21-38-7.5h-1zM661 764v1q0 41 29 70t70 29q27 0 50-13.5t36-36 13-49.5q0-41-29-70t-70-29-70 28.5-29 69.5zM911 464v-1q0-3-1.5-6.5t-3.5-5.5l-116-114q-5-5-13-5h-77v149h211v-17z"></path>
</svg>
