<!-- Generated by IcoMoon.io -->
<svg version="1.1" xmlns="http://www.w3.org/2000/svg" width="1024" height="1024" viewBox="0 0 1024 1024">
<title></title>
<g id="icomoon-ignore">
</g>
<path d="M522 197l-364.5 374-157.5 453 453-147.5 364-364.5zM984.5 167.5l-128-128q-36-39.5-88.5-39.5t-88.5 39.5l-108.5 108 295.5 305.5 118-118q39-37 39.5-88.5v-0.5q-4.5-46-39.5-78.5z"></path>
</svg>
