<!-- Generated by IcoMoon.io -->
<svg version="1.1" xmlns="http://www.w3.org/2000/svg" width="1024" height="1024" viewBox="0 0 1024 1024">
<title></title>
<g id="icomoon-ignore">
</g>
<path d="M384 348h-129v171h129v512h214v-512h155l16-171h-171v-71q0-16 1.5-26.5t7-17.5 15-10 23.5-3h124v-214h-163q-114 0-168 49.5t-54 147.5v145z"></path>
</svg>
