<!-- Generated by IcoMoon.io -->
<svg version="1.1" xmlns="http://www.w3.org/2000/svg" width="1073" height="1024" viewBox="0 0 1073 1024">
<title></title>
<g id="icomoon-ignore">
</g>
<path d="M897 152v-152h-361v78h278v372l-16 15-45 45-10 11-21 21q-13 10-26.5 23-8.5 8-24.5 25h-1q-24 21-73 70l-17 17q-6 4.5-8.5 7t-8.5 7q-2.5 2-8.5 5-4 2-9.5 2-2.5 0-4 0.5t-4 0.5-3.5-0.5-3-0.5h-2.5q-3.5 0-5-0.5l-4.5-1.5q-1.5-0.5-4.5-2.5-3.5-2.5-4-2.5-4-3-8-7t-9-7l-17-17q-8-8.5-19-19.5-2-2-7.75-7.5t-9.25-9q-7-7-19-18l-18-16q-24-25-51-48h-1l-39-39-13-14-11-11-14-13-15-16v-371h277v-78h-360v152l-176 83v789h1073v-789zM897 253l79 36-14 14-8.5 8-8.5 8.5-9 9.5-17.5 17.5-8 8.5-7 7.5-6.5 5.5v-115zM176 253v116l-79-79zM76 369l271 263-268 271zM536 955h-408q10-9 18-21l245-245q4-4 7-4l28 28q7 8 11 11.5l12 10.5q4 3.5 12 9.5 1.5 1 6 4.25t7 5.25l1 1q14 7.5 33 10 2 0 6 0.75t6.5 1.25q2.5 0 7 1t6.5 1h4q11 0 23-4h-1q19.5-2.5 34-11v1q27-19 48-42h1l27-28q4 0 7 4l66 66 180 179q6 11 17 21h-404zM993 903l-268-271 271-263z"></path>
</svg>
