<!-- Generated by IcoMoon.io -->
<svg version="1.1" xmlns="http://www.w3.org/2000/svg" width="1024" height="1024" viewBox="0 0 1024 1024">
<title></title>
<g id="icomoon-ignore">
</g>
<path d="M712 1024h-515v-12q57-11 111.5-20 68.5-11.5 120.5-22v-162.5l-0.5-76-2.5-82.5q0-6.5-2-12.5-2.5-7.5-8-15-7.5-10-8.5-12t-11.5-14q-9-10.5-10-11.5-15-18.5-63.5-75-8.5-10-30.75-35.75t-32.75-38.25q-18-21.5-64.5-75.5-43-50.5-63.5-74.5-2-2-62-81 3 0 30.25-0.25t86.25-0.5 125-0.25q227.5-1 229.5 1 5-0.5 12.75-1.25t9.25-0.75q7.5-0.5 16-2.5 7-1.5 12.5-5.5 2.5-1.5 9-7 3.5-3 7.5-10.5 1-2 3.25-6.25t3.25-6.25q2.5-5 7.5-16.5t9-19.5q2-4.5 17-36 6.5-14 15-28 10.5-17.5 13-22 4-7.5 14.5-15.5 12.5-9.5 14.5-11 4.5-2.5 17.5-5.5 13.5-3 20-3t26 1.5q20 1.5 31 3 3.5 0.5 16.25 2.25t22.25 3.25h2q2.5 0.5 132 22 0 3-2.5 15.5-0.5 2.5-3.5 14.5-13.5 0-25.5-2-3-0.5-24-3.5-3.5-0.5-12-2t-13.5-2q-15.5-2.5-25-4.5-11.5-2-26-4.25t-18-2.75q-12.5-2-35.5-3t-29.5-1.5q-6-0.5-22.5 4-15 4.5-19.5 7t-15.5 14.5q-11.5 12.5-14.5 19.5-2.5 6-13.5 29-11.5 24-16 36-4.5 11.5-17.5 45.5h206l-190 231q-157.5 195.5-158 217 0 9-0.5 32.25t-1 50.75-1 55.5q-1.5 95.5-1.5 102 0 15 2 81.5 6.5 1.5 54.5 10 7 1 25.75 4.5t27.75 5l56 10.5 55 10v15zM456 609q195.5-227 314-365h-1q-69-8-108.5-4-37 3.5-48 11.5-10 7.5-28.5 38.5l1 14q33 5 80 13-166 189-207 237-49.5-55.5-98-111-44.5-51-118-133 37.5 0 64 0.5t66.5 0.5q29 0 50.5-2 9-1 22 0 4.5 0.5 12.5 1.25t11.5 0.75q15 1 23 1 13 0 22-3.5 10.5-4 18.5-10.5 9-7 14-20.5 5.5-13.5 7.5-33.5h-411q8 9.5 36 41 202.5 236 277 324zM456 609q-62.5-74-169.5-194-109-122.5-168.5-192 61 0 110.5-0.5 24.5 0 74-0.25t74-0.75q25-0.5 76-0.75t77-0.25q71.5-0.5 149.5 1 78.5 1.5 113 3.5-48.5 58.5-166.5 191-108.5 122-169.5 193z"></path>
</svg>
