<!-- Generated by IcoMoon.io -->
<svg version="1.1" xmlns="http://www.w3.org/2000/svg" width="1024" height="1024" viewBox="0 0 1024 1024">
<title></title>
<g id="icomoon-ignore">
</g>
<path d="M854 1024v-171h170v171h-170zM854 569h170v171h-170v-171zM854 284h170v171h-170v-171zM854 0h170v171h-170v-171zM569 853h172v171h-172v-171zM569 569h172v171h-172v-171zM569 284h172v171h-172v-171zM569 0h172v171h-172v-171zM285 1024v-171h170v171h-170zM285 569h170v171h-170v-171zM285 284h170v171h-170v-171zM285 0h170v171h-170v-171zM0 853h172v171h-172v-171zM0 569h172v171h-172v-171zM0 284h172v171h-172v-171zM0 0h172v171h-172v-171z"></path>
</svg>
