<!-- Generated by IcoMoon.io -->
<svg version="1.1" xmlns="http://www.w3.org/2000/svg" width="1104" height="1024" viewBox="0 0 1104 1024">
<title></title>
<g id="icomoon-ignore">
</g>
<path d="M876 102h-449q-14 0-24 10t-10 24v90q0 6 2.5 13.5 2 6 7 11t11 7q7.5 2.5 13.5 2.5h5v252q0 14 10 24t24 10h374q14 0 24-10t10-24v-252q6 0 13.5-2.5 6-2 11-7t7-11q2.5-7.5 2.5-13.5v-90q0-8.5-4-16.5-3.5-7.5-11.5-12-8-5-15.5-5.5h-1zM447 173q0-7 5-12t12-5h374q7 0 12 5t5 12v17q0 7-5 12t-12 5h-374q-4 0-8-2.5-4.5-2.5-6.5-6-2.5-4-2.5-8.5v-17zM813 469q0 7-5 12t-12 5h-286q-7 0-12-5t-5-12v-209h321zM789 82v-1q0-32.5-23.5-57-23.5-24-57.5-24-31.5 0-55 22-23-21-54-21-34 0-57.5 24-23.5 24.5-23.5 57 0 25.5 14 45.5 15 21 36 30.5h1v345h62v-347q12.5-6.5 22-15 7.5 6.5 19 13l1 1v359h61v-356q25.5-8.5 40-29 15-21 15-47zM598 54q11.5 0 19.5 8 8.5 8.5 8.5 20-1 7-4.5 13.5t-10 10-13.5 3.5q-5 0-9-1.5-2.5-1-7.5-4-3.5-2.5-6-6-3-5-4-7.5-1.5-4-1.5-8 0-8 3.5-14.5t10-10 14.5-3.5zM708 109q-8.5 0-14-3.5-7-4.5-10-10-4-7-4-14 0-7.5 3.5-14t10-10 14.5-3.5q11 0 19 8t8 19.5-8 19.5-19 8zM1005 604q-28.5 3-54 16h1l-166 77-29 14q0-41-29-69.5-29.5-29-69-29.5h-306q-60.5 2.5-113 29l1-1-14 6-31 14-3-10q-2-7.5-6-10-4-1-6-1t-6 1l-164 44q-7 1-10 7-1 4-1 7t1 8v-1l83 306q2.5 10 7 12 5 1 8 1h4l4-1h-1l158-43q8.5-2.5 12-8 3-4 0-13l-4-16h386l7 1q57.5 0 108-23h-2l276-128q25.5-11.5 41.5-36 15.5-23.5 15.5-54 0-27-13.5-49.5t-36-36-49.5-13.5zM210 934q0 2-6 3l-68 19h-5q-2.5-2.5-3-4l-60-217v-6l5-3 69-19h6l2 4 59 215q0 1.5 0.5 2.5t0.5 3.5v2zM1020 737l-7 3-76 34-136 63-22 13-31 15q-24.5 9.5-53 15h-1q-17 1-26.5 1-8.5 0-27.5-1h-383l-45-162 29-13 13-6q3.5-2 22-10 12-5 24-9h2q24.5-8 55-9h302q11 0 20 6 8.5 5.5 14 15v1q3 7 3 16 0 10.5-5 19t-15 14v1q-13.5 2-32 2h-121q-13 0-22 9t-9 22 9 22 22 9h136l19-2q23.5-2.5 42-10h-1l187-86 84-40q2.5-2 6.5-3.5 5-2 7.5-2.5h1q8 0 15 3t12.5 8.5 8.5 12.5 3 15v1q0 25-24 34z"></path>
</svg>
