<!-- Generated by IcoMoon.io -->
<svg version="1.1" xmlns="http://www.w3.org/2000/svg" width="1024" height="1024" viewBox="0 0 1024 1024">
<title></title>
<g id="icomoon-ignore">
</g>
<path d="M473 350q-9 20-23 37.5t-31 30.5-37.5 21.5-42.5 11.5l-101 16 78 79q20 20 32 45t16.5 52.5 0.5 56.5l-17 103 79-44q20-11 41.5-16.5t43.5-5.5 43.5 5.5 41.5 16.5l79 44-17-106q-12-86 49-151l77-79-103-16q-28-5-53.5-18.5t-45.5-34-32-46.5l-39-84zM512 0q12 0 21.5 6.5t13.5 16.5l128 271q9 19 30 22l285 44q4 0 7.5 1.5t6.5 3 6 4 5 5.5 4 6.5 3 7.5q8 25-10 42l-206 211q-15 16-12 37l49 298q5 25-16 40-20 16-42 4l-255-141q-18-11-36 0l-256 140q-21 12-41-3-20-16-16-40l49-298q1-10-2-19.5t-10-16.5l-206-211q-18-19-10-43 7-25 32-28l285-44q10-1 18-7t12-15l128-271q10-23 36-23h-1z"></path>
</svg>
