<!-- Generated by IcoMoon.io -->
<svg version="1.1" xmlns="http://www.w3.org/2000/svg" width="1138" height="1024" viewBox="0 0 1138 1024">
<title></title>
<g id="icomoon-ignore">
</g>
<path d="M569 176q-17-44-49.5-77t-73.5-51-89-23-94.5 3.5-89.5 33-76 61-53 91.5-20 120q0 71 29 147.5t90.5 161.5 170 177 255.5 181q147-89 255.5-181t170-177 90-161.5 28.5-147.5q0-58-15.5-108t-42.5-85-62.5-61.5-76.5-39-83-16.5-83 5.5-76 27.5-62.5 48.5-42.5 70.5z"></path>
</svg>
