<!-- Generated by IcoMoon.io -->
<svg version="1.1" xmlns="http://www.w3.org/2000/svg" width="1024" height="1024" viewBox="0 0 1024 1024">
<title></title>
<g id="icomoon-ignore">
</g>
<path d="M0 146q41 1 256 1h731v1q1 1 1 3.5t-0.5 6.5l-0.5 4v714l-1 1h-979.5t-6.5 1v-732zM118 215l59 59q13 13 27 26 1 2 4.5 5.5l10.5 10.5q27 26 53 53 2 1 16 15l29 30q14 13 41 40t41 40q6 7 14.5 15l17 16t14.5 15q2 2 7.5 8t9.5 9.5 8 6.5q17 10 32 7 12-3 17-6 2-1 3.5-2t3.5-3l9-9q2-2 7.5-7t7.5-8q11-11 33-32.5t33-32.5q9-9 26-25.5t21-20.5l48-48q9-8 10-9l42-42q17-17 19-18 14-15 28-29 11-10 32-31.5t33-32.5h-757zM69 264v497l60-60q62-63 124-125l60-60q5-4 5-6l-44-44q-2-1-4-3t-3.5-4-4-4-3.5-4l-28-27q-13-14-39.5-40t-39.5-39q-10-9-28.5-27.5t-27.5-28.5l-25-25h-2zM918 269q-1 2-2.5 3l-4.5 3-85 85q-5 5-11.5 11t-13 12.5l-11.5 11.5q-24 24-26 25-14 14-27 28-3 3-6 5.5t-7 6.5-5 6q-5 4-10.5 9.5l-20.5 20.5q-2 2-6 5.5t-5 5.5q-5 5-5 7 2 1 5.5 5t5.5 6l178 178t18 18.5 16 16.5l23 22v-491zM118 810l752-1-184-184q-8-8-23.5-24t-23.5-23l-11-12q-1 0-1-1-3-3-6-3-13 13-26 25-27 28-44 38-7 4-31 11-15 4-27 2h-11q-2-1-8-1.5t-10-1.5q-9-4-16.5-7t-13.5-7q-2-1-3.5-2l-3-2t-3.5-2.5-3-2.5l-6-6t-3-2.5-3-2.5-2.5-3-2.5-3q-3-2-6-5.5t-6.5-6.5-6.5-5q-1-2-3.5-4.5t-4.5-5-4-3.5q-5-5-7-5l-248 248v2z"></path>
</svg>
