<!-- Generated by IcoMoon.io -->
<svg version="1.1" xmlns="http://www.w3.org/2000/svg" width="1024" height="1024" viewBox="0 0 1024 1024">
<title></title>
<g id="icomoon-ignore">
</g>
<path d="M480 704c88.352 0 160-71.648 160-160v-384c0-88.352-71.648-160-160-160s-160 71.648-160 160v384c0 88.352 71.648 160 160 160zM704 448v96c0 123.712-100.288 224-224 224s-224-100.288-224-224v-96h-64v96c0 148.224 112 270.304 256 286.208v129.792h-128v64h320v-64h-128v-129.792c144-15.904 256-137.984 256-286.208v-96h-64z"></path>
</svg>
