<!-- Generated by IcoMoon.io -->
<svg version="1.1" xmlns="http://www.w3.org/2000/svg" width="1024" height="1024" viewBox="0 0 1024 1024">
<title></title>
<g id="icomoon-ignore">
</g>
<path d="M939 171h-854q-35 0-60 25t-25 60v512q0 35 25 60t60 25h854q35 0 60-25t25-60v-512q0-14-4.5-27t-12-23.5q-7-10-18-18.5-10.5-8-23.5-12-13.5-4-27-4zM939 747q0 8-6.5 14.5t-15.5 6.5h-810q-9 0-15.5-6.5t-6.5-14.5v-278h854v278zM939 341h-854v-64q0-8 6.5-14.5t15.5-6.5h810q5 0 9 1.5 4.5 2 6.5 4.5 1.5 2 4.5 7 2 3.5 2 8v64zM555 597h-384v-42h384v42zM427 683h-256v-43h256v43zM853 597h-128v-42h128v42z"></path>
</svg>
