<!-- Generated by IcoMoon.io -->
<svg version="1.1" xmlns="http://www.w3.org/2000/svg" width="1024" height="1024" viewBox="0 0 1024 1024">
<title></title>
<g id="icomoon-ignore">
</g>
<path d="M939 379q0 111-44 203t-124 146-178 54h-8q-44 0-82-19.5t-63-54.5q-17-23-27 27-4 22-9 77-4 41-6 49-32 94-85 173l2-3q-8-2-16-4.5t-15-5.5-15-6q-6-40-6-85 0-52 9-104 5-20 24.5-100t36.5-149l17-69q-20-43-20-93v-3q0-67 35-112t86-45h2q34 0 58.5 24t24.5 58q0 5-1 9 0 25-9 60t-24 81.5-22 74.5q-1 2-1.5 4t-0.5 4-0.5 4.5-0.5 5v4.5q0 39 28 67t67 28h7q90 0 150-83.5t60-213.5q0-76-35.5-136.5t-99-93.5-144.5-33q-56 0-104.5 15.5t-84.5 42.5-61.5 62.5-38.5 76.5-13 84q0 82 50 148 5 5 5 13 0 3-1 5-3 12-10 41t-8 32q-4 17-23 9-60-27-97.5-101t-37.5-150q0-51 12.5-99.5t37-92.5 63-80.5 86-63 110-41 132.5-14.5q115 0 209.5 48t148.5 134 54 191zM265 1014l4 1q-1 0-2-0.5t-2-0.5z"></path>
</svg>
