<!-- Generated by IcoMoon.io -->
<svg version="1.1" xmlns="http://www.w3.org/2000/svg" width="1024" height="1024" viewBox="0 0 1024 1024">
<title></title>
<g id="icomoon-ignore">
</g>
<path d="M943 645h41v-237l34-20-509-160-509 160 250 78 262 77 261-78 57-18v-1l113-29v228zM984 720l-14-37-27 37 28 37zM511 636l-248-65-13 47q-4 5-4 11 0 18 51 49t113 55.5 92 24.5 97.5-24.5 123.5-56 56-48.5q0-4-1-9-2-4-3-8l-12-43-250 67h-2zM964 631l61 89-61 89-60-89z"></path>
</svg>
