<!-- Generated by IcoMoon.io -->
<svg version="1.1" xmlns="http://www.w3.org/2000/svg" width="1024" height="1024" viewBox="0 0 1024 1024">
<title></title>
<g id="icomoon-ignore">
</g>
<path d="M864 704h-0.5q-67 0-114.5 49l-431-215.5q2-10 2-25t-2-26.5v1l431-216q47.5 49 115 49 66.5 0 113.25-46.75t46.75-113.25-46.75-113.25-113.25-46.75-113.25 46.75-46.75 113.25v0.5q0 14.5 2 26v-1l-431 215.5q-47.5-49-115-49-66.5 0-113.25 46.75t-46.75 113.25 46.75 113.25 113.25 46.75q67.5 0 115-49l431 215.5q-2 10-2 25.5 0 66.5 46.75 113.25t113.25 46.75 113.25-46.75 46.75-113.25-46.75-113.25-113.25-46.75v0z"></path>
</svg>
