<!-- Generated by IcoMoon.io -->
<svg version="1.1" xmlns="http://www.w3.org/2000/svg" width="1024" height="1024" viewBox="0 0 1024 1024">
<title></title>
<g id="icomoon-ignore">
</g>
<path d="M512 0q-102.5 0-196.25 39.5t-162 106.25-109.75 159.25-44 194.5v0.5-4.5q0-86 32.75-164.25t88.25-135.75 132.5-93 162-38.5h0.5q85.5 3.5 162.75 39t132.75 93 88.25 136 32.75 164.5q0 2.5-0.25 8t-0.25 8.5v-1 2.5q0 39.5 28 67.75t68 28.25 68-28.25 28-67.75v-2.5q0-104.5-40.5-199.25t-109-163.25-163.25-109-199.25-40.5zM512 1024q102.5 0 196.25-39.5t162-106.25 109.75-159.25 44-194.5v-0.5 4.5q0 86-32.75 164.25t-88.25 135.75-132.25 93-161.75 38.5h-1q-85.5-3.5-162.75-38.75t-132.75-93-88.25-136.25-32.75-164.5q0-2.5 0.25-8t0.25-8.5v1q-1-39-29-66.25t-67-27.25-67 27.25-29 66.25q0 104.5 40.5 199.25t109 163.25 163.25 109 199.25 40.5v0z"></path>
</svg>
