<!-- Generated by IcoMoon.io -->
<svg version="1.1" xmlns="http://www.w3.org/2000/svg" width="1024" height="1024" viewBox="0 0 1024 1024">
<title></title>
<g id="icomoon-ignore">
</g>
<path d="M751 688l260 260q13 13 13 31t-13.5 31.5-31.5 13.5-31-13l-260-260q-82 66-184.5 86t-203-10-176.5-106q-81-81-110-190t0-217.5 110-189.5q60-61 139-92.5t159-31.5 159 31.5 140 92.5q76 76 106 176.5t10 203-86 184.5zM660 660q64-65 87-151.5t0-173-87-150.5q-49-48-111.5-73.5t-126-25.5-126.5 25.5-111 73.5q-65 64-87.5 150.5t0 173 87.5 151.5q39 38 87 62.5t99 31.5 102.5 0 99.5-31.5 87-62.5zM564 408q9 0 15.5 6.5t6.5 15.5q0 5-2 9t-5 7-7 4.5-8 1.5h-282q-6 0-11-3t-8-8-3-11q0-9 6.5-15.5t15.5-6.5h282z"></path>
</svg>
